<?xml version='1.0' encoding='UTF-8'?>
<glyph name="Ydotaccent" format="2">
  <advance width="556"/>
  <unicode hex="1E8E"/>
  <outline>
    <component base="Y"/>
    <component base="dotaccentcomb.case" xOffset="160"/>
  </outline>
</glyph>
