<?xml version='1.0' encoding='UTF-8'?>
<glyph name="hardsign-cy" format="2">
  <advance width="574"/>
  <unicode hex="044A"/>
  <outline>
    <contour>
      <point x="157" y="0" type="line"/>
      <point x="338" y="0" type="line" smooth="yes"/>
      <point x="463" y="0"/>
      <point x="538" y="62"/>
      <point x="538" y="164" type="curve" smooth="yes"/>
      <point x="538" y="259"/>
      <point x="471" y="321"/>
      <point x="368" y="321" type="curve" smooth="yes"/>
      <point x="208" y="321" type="line"/>
      <point x="208" y="255" type="line"/>
      <point x="355" y="255" type="line" smooth="yes"/>
      <point x="416" y="255"/>
      <point x="458" y="215"/>
      <point x="458" y="156" type="curve" smooth="yes"/>
      <point x="458" y="99"/>
      <point x="418" y="67"/>
      <point x="349" y="67" type="curve" smooth="yes"/>
      <point x="237" y="67" type="line"/>
      <point x="237" y="482" type="line"/>
      <point x="157" y="482" type="line"/>
    </contour>
    <contour>
      <point x="21" y="415" type="line"/>
      <point x="202" y="415" type="line"/>
      <point x="202" y="482" type="line"/>
      <point x="21" y="482" type="line"/>
    </contour>
  </outline>
  <lib>
    <dict>
      <key>com.schriftgestaltung.Glyphs.glyph.leftMetricsKey</key>
      <string>=|ge-cy</string>
      <key>com.schriftgestaltung.Glyphs.glyph.rightMetricsKey</key>
      <string>softsign-cy</string>
    </dict>
  </lib>
</glyph>
