<?xml version='1.0' encoding='UTF-8'?>
<glyph name="alphapsili" format="2">
  <advance width="618"/>
  <unicode hex="1F00"/>
  <outline>
    <component base="alpha"/>
    <component base="psili" xOffset="98"/>
  </outline>
</glyph>
