<?xml version='1.0' encoding='UTF-8'?>
<glyph name="two.dnom" format="2">
  <advance width="417"/>
  <outline>
    <contour>
      <point x="45" y="0" type="line"/>
      <point x="378" y="0" type="line"/>
      <point x="378" y="119" type="line"/>
      <point x="207" y="119" type="line"/>
      <point x="208" y="91" type="line"/>
      <point x="304" y="132"/>
      <point x="368" y="212"/>
      <point x="368" y="289" type="curve" smooth="yes"/>
      <point x="368" y="369"/>
      <point x="297" y="422"/>
      <point x="190" y="422" type="curve" smooth="yes"/>
      <point x="124" y="422"/>
      <point x="67" y="405"/>
      <point x="24" y="371" type="curve"/>
      <point x="58" y="270" type="line"/>
      <point x="98" y="292"/>
      <point x="133" y="303"/>
      <point x="163" y="303" type="curve" smooth="yes"/>
      <point x="200" y="303"/>
      <point x="225" y="287"/>
      <point x="225" y="263" type="curve" smooth="yes"/>
      <point x="225" y="224"/>
      <point x="157" y="162"/>
      <point x="45" y="98" type="curve"/>
    </contour>
  </outline>
</glyph>
