<?xml version='1.0' encoding='UTF-8'?>
<glyph name="upsilondialytikavaria" format="2">
  <advance width="586"/>
  <unicode hex="1FE2"/>
  <outline>
    <component base="upsilon"/>
    <component base="dialytikavaria" xOffset="-54"/>
  </outline>
</glyph>
